%YAML 1.1
%TAG !u! tag:unity3d.com,2011:
--- !u!1 &3589707020737412165
GameObject:
  m_ObjectHideFlags: 0
  m_CorrespondingSourceObject: {fileID: 0}
  m_PrefabInstance: {fileID: 0}
  m_PrefabAsset: {fileID: 0}
  serializedVersion: 6
  m_Component:
  - component: {fileID: 3589707020737412167}
  m_Layer: 0
  m_Name: TimeVis
  m_TagString: Untagged
  m_Icon: {fileID: 0}
  m_NavMeshLayer: 0
  m_StaticEditorFlags: 0
  m_IsActive: 1
--- !u!4 &3589707020737412167
Transform:
  m_ObjectHideFlags: 0
  m_CorrespondingSourceObject: {fileID: 0}
  m_PrefabInstance: {fileID: 0}
  m_PrefabAsset: {fileID: 0}
  m_GameObject: {fileID: 3589707020737412165}
  m_LocalRotation: {x: 0, y: 0, z: 0, w: 1}
  m_LocalPosition: {x: 2.7049925, y: -3.936831, z: 2.5251431}
  m_LocalScale: {x: 1, y: 1, z: 1}
  m_Children:
  - {fileID: 5273309479967497247}
  m_Father: {fileID: 0}
  m_RootOrder: 0
  m_LocalEulerAnglesHint: {x: 0, y: 0, z: 0}
--- !u!1001 &1403304363305112953
PrefabInstance:
  m_ObjectHideFlags: 0
  serializedVersion: 2
  m_Modification:
    m_TransformParent: {fileID: 3589707020737412167}
    m_Modifications:
    - target: {fileID: 6509679389799024996, guid: 47e10dda441388a4a9fef2cfb56c6922, type: 3}
      propertyPath: m_Name
      value: Time Visualisation of Selected States
      objectReference: {fileID: 0}
    - target: {fileID: 6509679389799024998, guid: 47e10dda441388a4a9fef2cfb56c6922, type: 3}
      propertyPath: m_RootOrder
      value: 0
      objectReference: {fileID: 0}
    - target: {fileID: 6509679389799024998, guid: 47e10dda441388a4a9fef2cfb56c6922, type: 3}
      propertyPath: m_LocalPosition.x
      value: -4.1394196
      objectReference: {fileID: 0}
    - target: {fileID: 6509679389799024998, guid: 47e10dda441388a4a9fef2cfb56c6922, type: 3}
      propertyPath: m_LocalPosition.y
      value: -2.2973094
      objectReference: {fileID: 0}
    - target: {fileID: 6509679389799024998, guid: 47e10dda441388a4a9fef2cfb56c6922, type: 3}
      propertyPath: m_LocalPosition.z
      value: 4.3869233
      objectReference: {fileID: 0}
    - target: {fileID: 6509679389799024998, guid: 47e10dda441388a4a9fef2cfb56c6922, type: 3}
      propertyPath: m_LocalRotation.w
      value: 1
      objectReference: {fileID: 0}
    - target: {fileID: 6509679389799024998, guid: 47e10dda441388a4a9fef2cfb56c6922, type: 3}
      propertyPath: m_LocalRotation.x
      value: -0
      objectReference: {fileID: 0}
    - target: {fileID: 6509679389799024998, guid: 47e10dda441388a4a9fef2cfb56c6922, type: 3}
      propertyPath: m_LocalRotation.y
      value: -0
      objectReference: {fileID: 0}
    - target: {fileID: 6509679389799024998, guid: 47e10dda441388a4a9fef2cfb56c6922, type: 3}
      propertyPath: m_LocalRotation.z
      value: -0
      objectReference: {fileID: 0}
    - target: {fileID: 6509679389799024998, guid: 47e10dda441388a4a9fef2cfb56c6922, type: 3}
      propertyPath: m_LocalEulerAnglesHint.x
      value: 0
      objectReference: {fileID: 0}
    - target: {fileID: 6509679389799024998, guid: 47e10dda441388a4a9fef2cfb56c6922, type: 3}
      propertyPath: m_LocalEulerAnglesHint.y
      value: 0
      objectReference: {fileID: 0}
    - target: {fileID: 6509679389799024998, guid: 47e10dda441388a4a9fef2cfb56c6922, type: 3}
      propertyPath: m_LocalEulerAnglesHint.z
      value: 0
      objectReference: {fileID: 0}
    m_RemovedComponents: []
  m_SourcePrefab: {fileID: 100100000, guid: 47e10dda441388a4a9fef2cfb56c6922, type: 3}
--- !u!4 &5273309479967497247 stripped
Transform:
  m_CorrespondingSourceObject: {fileID: 6509679389799024998, guid: 47e10dda441388a4a9fef2cfb56c6922, type: 3}
  m_PrefabInstance: {fileID: 1403304363305112953}
  m_PrefabAsset: {fileID: 0}
