%YAML 1.1
%TAG !u! tag:unity3d.com,2011:
--- !u!29 &1
OcclusionCullingSettings:
  m_ObjectHideFlags: 0
  serializedVersion: 2
  m_OcclusionBakeSettings:
    smallestOccluder: 5
    smallestHole: 0.25
    backfaceThreshold: 100
  m_SceneGUID: 00000000000000000000000000000000
  m_OcclusionCullingData: {fileID: 0}
--- !u!104 &2
RenderSettings:
  m_ObjectHideFlags: 0
  serializedVersion: 9
  m_Fog: 0
  m_FogColor: {r: 0.5, g: 0.5, b: 0.5, a: 1}
  m_FogMode: 3
  m_FogDensity: 0.01
  m_LinearFogStart: 0
  m_LinearFogEnd: 300
  m_AmbientSkyColor: {r: 0.212, g: 0.227, b: 0.259, a: 1}
  m_AmbientEquatorColor: {r: 0.114, g: 0.125, b: 0.133, a: 1}
  m_AmbientGroundColor: {r: 0.047, g: 0.043, b: 0.035, a: 1}
  m_AmbientIntensity: 1
  m_AmbientMode: 0
  m_SubtractiveShadowColor: {r: 0.42, g: 0.478, b: 0.627, a: 1}
  m_SkyboxMaterial: {fileID: 10304, guid: 0000000000000000f000000000000000, type: 0}
  m_HaloStrength: 0.5
  m_FlareStrength: 1
  m_FlareFadeSpeed: 3
  m_HaloTexture: {fileID: 0}
  m_SpotCookie: {fileID: 10001, guid: 0000000000000000e000000000000000, type: 0}
  m_DefaultReflectionMode: 0
  m_DefaultReflectionResolution: 128
  m_ReflectionBounces: 1
  m_ReflectionIntensity: 1
  m_CustomReflection: {fileID: 0}
  m_Sun: {fileID: 0}
  m_IndirectSpecularColor: {r: 0.44657844, g: 0.49641222, b: 0.57481694, a: 1}
  m_UseRadianceAmbientProbe: 0
--- !u!157 &3
LightmapSettings:
  m_ObjectHideFlags: 0
  serializedVersion: 12
  m_GIWorkflowMode: 1
  m_GISettings:
    serializedVersion: 2
    m_BounceScale: 1
    m_IndirectOutputScale: 1
    m_AlbedoBoost: 1
    m_EnvironmentLightingMode: 0
    m_EnableBakedLightmaps: 1
    m_EnableRealtimeLightmaps: 0
  m_LightmapEditorSettings:
    serializedVersion: 12
    m_Resolution: 2
    m_BakeResolution: 40
    m_AtlasSize: 1024
    m_AO: 0
    m_AOMaxDistance: 1
    m_CompAOExponent: 1
    m_CompAOExponentDirect: 0
    m_ExtractAmbientOcclusion: 0
    m_Padding: 2
    m_LightmapParameters: {fileID: 0}
    m_LightmapsBakeMode: 1
    m_TextureCompression: 1
    m_FinalGather: 0
    m_FinalGatherFiltering: 1
    m_FinalGatherRayCount: 256
    m_ReflectionCompression: 2
    m_MixedBakeMode: 2
    m_BakeBackend: 1
    m_PVRSampling: 1
    m_PVRDirectSampleCount: 32
    m_PVRSampleCount: 512
    m_PVRBounces: 2
    m_PVREnvironmentSampleCount: 256
    m_PVREnvironmentReferencePointCount: 2048
    m_PVRFilteringMode: 1
    m_PVRDenoiserTypeDirect: 1
    m_PVRDenoiserTypeIndirect: 1
    m_PVRDenoiserTypeAO: 1
    m_PVRFilterTypeDirect: 0
    m_PVRFilterTypeIndirect: 0
    m_PVRFilterTypeAO: 0
    m_PVREnvironmentMIS: 1
    m_PVRCulling: 1
    m_PVRFilteringGaussRadiusDirect: 1
    m_PVRFilteringGaussRadiusIndirect: 5
    m_PVRFilteringGaussRadiusAO: 2
    m_PVRFilteringAtrousPositionSigmaDirect: 0.5
    m_PVRFilteringAtrousPositionSigmaIndirect: 2
    m_PVRFilteringAtrousPositionSigmaAO: 1
    m_ExportTrainingData: 0
    m_TrainingDataDestination: TrainingData
    m_LightProbeSampleCountMultiplier: 4
  m_LightingDataAsset: {fileID: 0}
  m_LightingSettings: {fileID: 0}
--- !u!196 &4
NavMeshSettings:
  serializedVersion: 2
  m_ObjectHideFlags: 0
  m_BuildSettings:
    serializedVersion: 2
    agentTypeID: 0
    agentRadius: 0.5
    agentHeight: 2
    agentSlope: 45
    agentClimb: 0.4
    ledgeDropHeight: 0
    maxJumpAcrossDistance: 0
    minRegionArea: 2
    manualCellSize: 0
    cellSize: 0.16666667
    manualTileSize: 0
    tileSize: 256
    accuratePlacement: 0
    maxJobWorkers: 0
    preserveTilesOutsideBounds: 0
    debug:
      m_Flags: 0
  m_NavMeshData: {fileID: 0}
--- !u!1001 &26266013
PrefabInstance:
  m_ObjectHideFlags: 0
  serializedVersion: 2
  m_Modification:
    m_TransformParent: {fileID: 0}
    m_Modifications:
    - target: {fileID: -8679921383154817045, guid: 8d085bbad187c4a4aa64833f9bfef54d, type: 3}
      propertyPath: m_RootOrder
      value: 9
      objectReference: {fileID: 0}
    - target: {fileID: -8679921383154817045, guid: 8d085bbad187c4a4aa64833f9bfef54d, type: 3}
      propertyPath: m_LocalScale.x
      value: 2000
      objectReference: {fileID: 0}
    - target: {fileID: -8679921383154817045, guid: 8d085bbad187c4a4aa64833f9bfef54d, type: 3}
      propertyPath: m_LocalScale.y
      value: 2000
      objectReference: {fileID: 0}
    - target: {fileID: -8679921383154817045, guid: 8d085bbad187c4a4aa64833f9bfef54d, type: 3}
      propertyPath: m_LocalScale.z
      value: 2000
      objectReference: {fileID: 0}
    - target: {fileID: -8679921383154817045, guid: 8d085bbad187c4a4aa64833f9bfef54d, type: 3}
      propertyPath: m_LocalPosition.x
      value: -0.95
      objectReference: {fileID: 0}
    - target: {fileID: -8679921383154817045, guid: 8d085bbad187c4a4aa64833f9bfef54d, type: 3}
      propertyPath: m_LocalPosition.y
      value: 1
      objectReference: {fileID: 0}
    - target: {fileID: -8679921383154817045, guid: 8d085bbad187c4a4aa64833f9bfef54d, type: 3}
      propertyPath: m_LocalPosition.z
      value: -1.63
      objectReference: {fileID: 0}
    - target: {fileID: -8679921383154817045, guid: 8d085bbad187c4a4aa64833f9bfef54d, type: 3}
      propertyPath: m_LocalRotation.w
      value: 0.7071067
      objectReference: {fileID: 0}
    - target: {fileID: -8679921383154817045, guid: 8d085bbad187c4a4aa64833f9bfef54d, type: 3}
      propertyPath: m_LocalRotation.x
      value: -0.7071068
      objectReference: {fileID: 0}
    - target: {fileID: -8679921383154817045, guid: 8d085bbad187c4a4aa64833f9bfef54d, type: 3}
      propertyPath: m_LocalRotation.y
      value: 0
      objectReference: {fileID: 0}
    - target: {fileID: -8679921383154817045, guid: 8d085bbad187c4a4aa64833f9bfef54d, type: 3}
      propertyPath: m_LocalRotation.z
      value: -0
      objectReference: {fileID: 0}
    - target: {fileID: -8679921383154817045, guid: 8d085bbad187c4a4aa64833f9bfef54d, type: 3}
      propertyPath: m_LocalEulerAnglesHint.x
      value: 0
      objectReference: {fileID: 0}
    - target: {fileID: -8679921383154817045, guid: 8d085bbad187c4a4aa64833f9bfef54d, type: 3}
      propertyPath: m_LocalEulerAnglesHint.y
      value: 0
      objectReference: {fileID: 0}
    - target: {fileID: -8679921383154817045, guid: 8d085bbad187c4a4aa64833f9bfef54d, type: 3}
      propertyPath: m_LocalEulerAnglesHint.z
      value: 0
      objectReference: {fileID: 0}
    - target: {fileID: 919132149155446097, guid: 8d085bbad187c4a4aa64833f9bfef54d, type: 3}
      propertyPath: m_Name
      value: SachsenAnhalt
      objectReference: {fileID: 0}
    m_RemovedComponents: []
  m_SourcePrefab: {fileID: 100100000, guid: 8d085bbad187c4a4aa64833f9bfef54d, type: 3}
--- !u!1001 &51811568
PrefabInstance:
  m_ObjectHideFlags: 0
  serializedVersion: 2
  m_Modification:
    m_TransformParent: {fileID: 0}
    m_Modifications:
    - target: {fileID: -8679921383154817045, guid: 76ac22e409797db448f24bdfcfd7a66c, type: 3}
      propertyPath: m_RootOrder
      value: 4
      objectReference: {fileID: 0}
    - target: {fileID: -8679921383154817045, guid: 76ac22e409797db448f24bdfcfd7a66c, type: 3}
      propertyPath: m_LocalScale.x
      value: 2000
      objectReference: {fileID: 0}
    - target: {fileID: -8679921383154817045, guid: 76ac22e409797db448f24bdfcfd7a66c, type: 3}
      propertyPath: m_LocalScale.y
      value: 2000
      objectReference: {fileID: 0}
    - target: {fileID: -8679921383154817045, guid: 76ac22e409797db448f24bdfcfd7a66c, type: 3}
      propertyPath: m_LocalScale.z
      value: 2000
      objectReference: {fileID: 0}
    - target: {fileID: -8679921383154817045, guid: 76ac22e409797db448f24bdfcfd7a66c, type: 3}
      propertyPath: m_LocalPosition.x
      value: -1.88
      objectReference: {fileID: 0}
    - target: {fileID: -8679921383154817045, guid: 76ac22e409797db448f24bdfcfd7a66c, type: 3}
      propertyPath: m_LocalPosition.y
      value: 1
      objectReference: {fileID: 0}
    - target: {fileID: -8679921383154817045, guid: 76ac22e409797db448f24bdfcfd7a66c, type: 3}
      propertyPath: m_LocalPosition.z
      value: -4.53
      objectReference: {fileID: 0}
    - target: {fileID: -8679921383154817045, guid: 76ac22e409797db448f24bdfcfd7a66c, type: 3}
      propertyPath: m_LocalRotation.w
      value: 0.7071067
      objectReference: {fileID: 0}
    - target: {fileID: -8679921383154817045, guid: 76ac22e409797db448f24bdfcfd7a66c, type: 3}
      propertyPath: m_LocalRotation.x
      value: -0.7071068
      objectReference: {fileID: 0}
    - target: {fileID: -8679921383154817045, guid: 76ac22e409797db448f24bdfcfd7a66c, type: 3}
      propertyPath: m_LocalRotation.y
      value: 0
      objectReference: {fileID: 0}
    - target: {fileID: -8679921383154817045, guid: 76ac22e409797db448f24bdfcfd7a66c, type: 3}
      propertyPath: m_LocalRotation.z
      value: -0
      objectReference: {fileID: 0}
    - target: {fileID: -8679921383154817045, guid: 76ac22e409797db448f24bdfcfd7a66c, type: 3}
      propertyPath: m_LocalEulerAnglesHint.x
      value: 0
      objectReference: {fileID: 0}
    - target: {fileID: -8679921383154817045, guid: 76ac22e409797db448f24bdfcfd7a66c, type: 3}
      propertyPath: m_LocalEulerAnglesHint.y
      value: 0
      objectReference: {fileID: 0}
    - target: {fileID: -8679921383154817045, guid: 76ac22e409797db448f24bdfcfd7a66c, type: 3}
      propertyPath: m_LocalEulerAnglesHint.z
      value: 0
      objectReference: {fileID: 0}
    - target: {fileID: 919132149155446097, guid: 76ac22e409797db448f24bdfcfd7a66c, type: 3}
      propertyPath: m_Name
      value: MeckPomm
      objectReference: {fileID: 0}
    m_RemovedComponents: []
  m_SourcePrefab: {fileID: 100100000, guid: 76ac22e409797db448f24bdfcfd7a66c, type: 3}
--- !u!1001 &529208491
PrefabInstance:
  m_ObjectHideFlags: 0
  serializedVersion: 2
  m_Modification:
    m_TransformParent: {fileID: 0}
    m_Modifications:
    - target: {fileID: -8679921383154817045, guid: 926e7f328c444124abeffd30e165d43c, type: 3}
      propertyPath: m_RootOrder
      value: 6
      objectReference: {fileID: 0}
    - target: {fileID: -8679921383154817045, guid: 926e7f328c444124abeffd30e165d43c, type: 3}
      propertyPath: m_LocalScale.x
      value: 2000
      objectReference: {fileID: 0}
    - target: {fileID: -8679921383154817045, guid: 926e7f328c444124abeffd30e165d43c, type: 3}
      propertyPath: m_LocalScale.y
      value: 2000
      objectReference: {fileID: 0}
    - target: {fileID: -8679921383154817045, guid: 926e7f328c444124abeffd30e165d43c, type: 3}
      propertyPath: m_LocalScale.z
      value: 2000
      objectReference: {fileID: 0}
    - target: {fileID: -8679921383154817045, guid: 926e7f328c444124abeffd30e165d43c, type: 3}
      propertyPath: m_LocalPosition.x
      value: -2.2
      objectReference: {fileID: 0}
    - target: {fileID: -8679921383154817045, guid: 926e7f328c444124abeffd30e165d43c, type: 3}
      propertyPath: m_LocalPosition.y
      value: 1
      objectReference: {fileID: 0}
    - target: {fileID: -8679921383154817045, guid: 926e7f328c444124abeffd30e165d43c, type: 3}
      propertyPath: m_LocalPosition.z
      value: -2.47
      objectReference: {fileID: 0}
    - target: {fileID: -8679921383154817045, guid: 926e7f328c444124abeffd30e165d43c, type: 3}
      propertyPath: m_LocalRotation.w
      value: 0.7071067
      objectReference: {fileID: 0}
    - target: {fileID: -8679921383154817045, guid: 926e7f328c444124abeffd30e165d43c, type: 3}
      propertyPath: m_LocalRotation.x
      value: -0.7071068
      objectReference: {fileID: 0}
    - target: {fileID: -8679921383154817045, guid: 926e7f328c444124abeffd30e165d43c, type: 3}
      propertyPath: m_LocalRotation.y
      value: 0
      objectReference: {fileID: 0}
    - target: {fileID: -8679921383154817045, guid: 926e7f328c444124abeffd30e165d43c, type: 3}
      propertyPath: m_LocalRotation.z
      value: -0
      objectReference: {fileID: 0}
    - target: {fileID: -8679921383154817045, guid: 926e7f328c444124abeffd30e165d43c, type: 3}
      propertyPath: m_LocalEulerAnglesHint.x
      value: 0
      objectReference: {fileID: 0}
    - target: {fileID: -8679921383154817045, guid: 926e7f328c444124abeffd30e165d43c, type: 3}
      propertyPath: m_LocalEulerAnglesHint.y
      value: 0
      objectReference: {fileID: 0}
    - target: {fileID: -8679921383154817045, guid: 926e7f328c444124abeffd30e165d43c, type: 3}
      propertyPath: m_LocalEulerAnglesHint.z
      value: 0
      objectReference: {fileID: 0}
    - target: {fileID: 919132149155446097, guid: 926e7f328c444124abeffd30e165d43c, type: 3}
      propertyPath: m_Name
      value: Brandenburg
      objectReference: {fileID: 0}
    m_RemovedComponents: []
  m_SourcePrefab: {fileID: 100100000, guid: 926e7f328c444124abeffd30e165d43c, type: 3}
--- !u!1001 &682459905
PrefabInstance:
  m_ObjectHideFlags: 0
  serializedVersion: 2
  m_Modification:
    m_TransformParent: {fileID: 0}
    m_Modifications:
    - target: {fileID: -8679921383154817045, guid: 0f5c399861f514f468574dc8996dcbdd, type: 3}
      propertyPath: m_RootOrder
      value: 1
      objectReference: {fileID: 0}
    - target: {fileID: -8679921383154817045, guid: 0f5c399861f514f468574dc8996dcbdd, type: 3}
      propertyPath: m_LocalScale.x
      value: 2000
      objectReference: {fileID: 0}
    - target: {fileID: -8679921383154817045, guid: 0f5c399861f514f468574dc8996dcbdd, type: 3}
      propertyPath: m_LocalScale.y
      value: 2000
      objectReference: {fileID: 0}
    - target: {fileID: -8679921383154817045, guid: 0f5c399861f514f468574dc8996dcbdd, type: 3}
      propertyPath: m_LocalScale.z
      value: 2000
      objectReference: {fileID: 0}
    - target: {fileID: -8679921383154817045, guid: 0f5c399861f514f468574dc8996dcbdd, type: 3}
      propertyPath: m_LocalPosition.x
      value: 1.72
      objectReference: {fileID: 0}
    - target: {fileID: -8679921383154817045, guid: 0f5c399861f514f468574dc8996dcbdd, type: 3}
      propertyPath: m_LocalPosition.y
      value: 1
      objectReference: {fileID: 0}
    - target: {fileID: -8679921383154817045, guid: 0f5c399861f514f468574dc8996dcbdd, type: 3}
      propertyPath: m_LocalPosition.z
      value: -3.25
      objectReference: {fileID: 0}
    - target: {fileID: -8679921383154817045, guid: 0f5c399861f514f468574dc8996dcbdd, type: 3}
      propertyPath: m_LocalRotation.w
      value: 0.7071067
      objectReference: {fileID: 0}
    - target: {fileID: -8679921383154817045, guid: 0f5c399861f514f468574dc8996dcbdd, type: 3}
      propertyPath: m_LocalRotation.x
      value: -0.7071068
      objectReference: {fileID: 0}
    - target: {fileID: -8679921383154817045, guid: 0f5c399861f514f468574dc8996dcbdd, type: 3}
      propertyPath: m_LocalRotation.y
      value: 0
      objectReference: {fileID: 0}
    - target: {fileID: -8679921383154817045, guid: 0f5c399861f514f468574dc8996dcbdd, type: 3}
      propertyPath: m_LocalRotation.z
      value: -0
      objectReference: {fileID: 0}
    - target: {fileID: -8679921383154817045, guid: 0f5c399861f514f468574dc8996dcbdd, type: 3}
      propertyPath: m_LocalEulerAnglesHint.x
      value: 0
      objectReference: {fileID: 0}
    - target: {fileID: -8679921383154817045, guid: 0f5c399861f514f468574dc8996dcbdd, type: 3}
      propertyPath: m_LocalEulerAnglesHint.y
      value: 0
      objectReference: {fileID: 0}
    - target: {fileID: -8679921383154817045, guid: 0f5c399861f514f468574dc8996dcbdd, type: 3}
      propertyPath: m_LocalEulerAnglesHint.z
      value: 0
      objectReference: {fileID: 0}
    - target: {fileID: 919132149155446097, guid: 0f5c399861f514f468574dc8996dcbdd, type: 3}
      propertyPath: m_Name
      value: Bremen
      objectReference: {fileID: 0}
    m_RemovedComponents: []
  m_SourcePrefab: {fileID: 100100000, guid: 0f5c399861f514f468574dc8996dcbdd, type: 3}
--- !u!1 &720740067
GameObject:
  m_ObjectHideFlags: 0
  m_CorrespondingSourceObject: {fileID: 0}
  m_PrefabInstance: {fileID: 0}
  m_PrefabAsset: {fileID: 0}
  serializedVersion: 6
  m_Component:
  - component: {fileID: 720740069}
  - component: {fileID: 720740068}
  m_Layer: 0
  m_Name: Directional Light
  m_TagString: Untagged
  m_Icon: {fileID: 0}
  m_NavMeshLayer: 0
  m_StaticEditorFlags: 0
  m_IsActive: 1
--- !u!108 &720740068
Light:
  m_ObjectHideFlags: 0
  m_CorrespondingSourceObject: {fileID: 0}
  m_PrefabInstance: {fileID: 0}
  m_PrefabAsset: {fileID: 0}
  m_GameObject: {fileID: 720740067}
  m_Enabled: 1
  serializedVersion: 10
  m_Type: 1
  m_Shape: 0
  m_Color: {r: 1, g: 0.95686275, b: 0.8392157, a: 1}
  m_Intensity: 1
  m_Range: 10
  m_SpotAngle: 30
  m_InnerSpotAngle: 21.80208
  m_CookieSize: 10
  m_Shadows:
    m_Type: 2
    m_Resolution: -1
    m_CustomResolution: -1
    m_Strength: 1
    m_Bias: 0.05
    m_NormalBias: 0.4
    m_NearPlane: 0.2
    m_CullingMatrixOverride:
      e00: 1
      e01: 0
      e02: 0
      e03: 0
      e10: 0
      e11: 1
      e12: 0
      e13: 0
      e20: 0
      e21: 0
      e22: 1
      e23: 0
      e30: 0
      e31: 0
      e32: 0
      e33: 1
    m_UseCullingMatrixOverride: 0
  m_Cookie: {fileID: 0}
  m_DrawHalo: 0
  m_Flare: {fileID: 0}
  m_RenderMode: 0
  m_CullingMask:
    serializedVersion: 2
    m_Bits: 4294967295
  m_RenderingLayerMask: 1
  m_Lightmapping: 4
  m_LightShadowCasterMode: 0
  m_AreaSize: {x: 1, y: 1}
  m_BounceIntensity: 1
  m_ColorTemperature: 6570
  m_UseColorTemperature: 0
  m_BoundingSphereOverride: {x: 0, y: 0, z: 0, w: 0}
  m_UseBoundingSphereOverride: 0
  m_UseViewFrustumForShadowCasterCull: 1
  m_ShadowRadius: 0
  m_ShadowAngle: 0
--- !u!4 &720740069
Transform:
  m_ObjectHideFlags: 0
  m_CorrespondingSourceObject: {fileID: 0}
  m_PrefabInstance: {fileID: 0}
  m_PrefabAsset: {fileID: 0}
  m_GameObject: {fileID: 720740067}
  m_LocalRotation: {x: 0.40821788, y: -0.23456968, z: 0.10938163, w: 0.8754261}
  m_LocalPosition: {x: -7.61, y: 0.38, z: -1.86}
  m_LocalScale: {x: 1, y: 1, z: 1}
  m_Children: []
  m_Father: {fileID: 0}
  m_RootOrder: 17
  m_LocalEulerAnglesHint: {x: 50, y: -30, z: 0}
--- !u!1001 &929100866
PrefabInstance:
  m_ObjectHideFlags: 0
  serializedVersion: 2
  m_Modification:
    m_TransformParent: {fileID: 0}
    m_Modifications:
    - target: {fileID: -8679921383154817045, guid: b8ea3f86229f14a4f969b326f167f910, type: 3}
      propertyPath: m_RootOrder
      value: 14
      objectReference: {fileID: 0}
    - target: {fileID: -8679921383154817045, guid: b8ea3f86229f14a4f969b326f167f910, type: 3}
      propertyPath: m_LocalScale.x
      value: 2000
      objectReference: {fileID: 0}
    - target: {fileID: -8679921383154817045, guid: b8ea3f86229f14a4f969b326f167f910, type: 3}
      propertyPath: m_LocalScale.y
      value: 2000
      objectReference: {fileID: 0}
    - target: {fileID: -8679921383154817045, guid: b8ea3f86229f14a4f969b326f167f910, type: 3}
      propertyPath: m_LocalScale.z
      value: 2000
      objectReference: {fileID: 0}
    - target: {fileID: -8679921383154817045, guid: b8ea3f86229f14a4f969b326f167f910, type: 3}
      propertyPath: m_LocalPosition.x
      value: 2.95
      objectReference: {fileID: 0}
    - target: {fileID: -8679921383154817045, guid: b8ea3f86229f14a4f969b326f167f910, type: 3}
      propertyPath: m_LocalPosition.y
      value: 1
      objectReference: {fileID: 0}
    - target: {fileID: -8679921383154817045, guid: b8ea3f86229f14a4f969b326f167f910, type: 3}
      propertyPath: m_LocalPosition.z
      value: 1.32
      objectReference: {fileID: 0}
    - target: {fileID: -8679921383154817045, guid: b8ea3f86229f14a4f969b326f167f910, type: 3}
      propertyPath: m_LocalRotation.w
      value: 0.7071067
      objectReference: {fileID: 0}
    - target: {fileID: -8679921383154817045, guid: b8ea3f86229f14a4f969b326f167f910, type: 3}
      propertyPath: m_LocalRotation.x
      value: -0.7071068
      objectReference: {fileID: 0}
    - target: {fileID: -8679921383154817045, guid: b8ea3f86229f14a4f969b326f167f910, type: 3}
      propertyPath: m_LocalRotation.y
      value: 0
      objectReference: {fileID: 0}
    - target: {fileID: -8679921383154817045, guid: b8ea3f86229f14a4f969b326f167f910, type: 3}
      propertyPath: m_LocalRotation.z
      value: -0
      objectReference: {fileID: 0}
    - target: {fileID: -8679921383154817045, guid: b8ea3f86229f14a4f969b326f167f910, type: 3}
      propertyPath: m_LocalEulerAnglesHint.x
      value: 0
      objectReference: {fileID: 0}
    - target: {fileID: -8679921383154817045, guid: b8ea3f86229f14a4f969b326f167f910, type: 3}
      propertyPath: m_LocalEulerAnglesHint.y
      value: 0
      objectReference: {fileID: 0}
    - target: {fileID: -8679921383154817045, guid: b8ea3f86229f14a4f969b326f167f910, type: 3}
      propertyPath: m_LocalEulerAnglesHint.z
      value: 0
      objectReference: {fileID: 0}
    - target: {fileID: 919132149155446097, guid: b8ea3f86229f14a4f969b326f167f910, type: 3}
      propertyPath: m_Name
      value: RheinlandPfalz
      objectReference: {fileID: 0}
    m_RemovedComponents: []
  m_SourcePrefab: {fileID: 100100000, guid: b8ea3f86229f14a4f969b326f167f910, type: 3}
--- !u!1001 &939510295
PrefabInstance:
  m_ObjectHideFlags: 0
  serializedVersion: 2
  m_Modification:
    m_TransformParent: {fileID: 0}
    m_Modifications:
    - target: {fileID: -8679921383154817045, guid: ac52e346416f8f1468fac830697fe21e, type: 3}
      propertyPath: m_RootOrder
      value: 13
      objectReference: {fileID: 0}
    - target: {fileID: -8679921383154817045, guid: ac52e346416f8f1468fac830697fe21e, type: 3}
      propertyPath: m_LocalScale.x
      value: 2000
      objectReference: {fileID: 0}
    - target: {fileID: -8679921383154817045, guid: ac52e346416f8f1468fac830697fe21e, type: 3}
      propertyPath: m_LocalScale.y
      value: 2000
      objectReference: {fileID: 0}
    - target: {fileID: -8679921383154817045, guid: ac52e346416f8f1468fac830697fe21e, type: 3}
      propertyPath: m_LocalScale.z
      value: 2000
      objectReference: {fileID: 0}
    - target: {fileID: -8679921383154817045, guid: ac52e346416f8f1468fac830697fe21e, type: 3}
      propertyPath: m_LocalPosition.x
      value: 3.59
      objectReference: {fileID: 0}
    - target: {fileID: -8679921383154817045, guid: ac52e346416f8f1468fac830697fe21e, type: 3}
      propertyPath: m_LocalPosition.y
      value: 1
      objectReference: {fileID: 0}
    - target: {fileID: -8679921383154817045, guid: ac52e346416f8f1468fac830697fe21e, type: 3}
      propertyPath: m_LocalPosition.z
      value: 2.12
      objectReference: {fileID: 0}
    - target: {fileID: -8679921383154817045, guid: ac52e346416f8f1468fac830697fe21e, type: 3}
      propertyPath: m_LocalRotation.w
      value: 0.7071067
      objectReference: {fileID: 0}
    - target: {fileID: -8679921383154817045, guid: ac52e346416f8f1468fac830697fe21e, type: 3}
      propertyPath: m_LocalRotation.x
      value: -0.7071068
      objectReference: {fileID: 0}
    - target: {fileID: -8679921383154817045, guid: ac52e346416f8f1468fac830697fe21e, type: 3}
      propertyPath: m_LocalRotation.y
      value: 0
      objectReference: {fileID: 0}
    - target: {fileID: -8679921383154817045, guid: ac52e346416f8f1468fac830697fe21e, type: 3}
      propertyPath: m_LocalRotation.z
      value: -0
      objectReference: {fileID: 0}
    - target: {fileID: -8679921383154817045, guid: ac52e346416f8f1468fac830697fe21e, type: 3}
      propertyPath: m_LocalEulerAnglesHint.x
      value: 0
      objectReference: {fileID: 0}
    - target: {fileID: -8679921383154817045, guid: ac52e346416f8f1468fac830697fe21e, type: 3}
      propertyPath: m_LocalEulerAnglesHint.y
      value: 0
      objectReference: {fileID: 0}
    - target: {fileID: -8679921383154817045, guid: ac52e346416f8f1468fac830697fe21e, type: 3}
      propertyPath: m_LocalEulerAnglesHint.z
      value: 0
      objectReference: {fileID: 0}
    - target: {fileID: 919132149155446097, guid: ac52e346416f8f1468fac830697fe21e, type: 3}
      propertyPath: m_Name
      value: Saarland
      objectReference: {fileID: 0}
    m_RemovedComponents: []
  m_SourcePrefab: {fileID: 100100000, guid: ac52e346416f8f1468fac830697fe21e, type: 3}
--- !u!1001 &1145371311
PrefabInstance:
  m_ObjectHideFlags: 0
  serializedVersion: 2
  m_Modification:
    m_TransformParent: {fileID: 0}
    m_Modifications:
    - target: {fileID: -8679921383154817045, guid: f059eeb67f5da1d4dba9c0f7eb6e10da, type: 3}
      propertyPath: m_RootOrder
      value: 2
      objectReference: {fileID: 0}
    - target: {fileID: -8679921383154817045, guid: f059eeb67f5da1d4dba9c0f7eb6e10da, type: 3}
      propertyPath: m_LocalScale.x
      value: 2000
      objectReference: {fileID: 0}
    - target: {fileID: -8679921383154817045, guid: f059eeb67f5da1d4dba9c0f7eb6e10da, type: 3}
      propertyPath: m_LocalScale.y
      value: 2000
      objectReference: {fileID: 0}
    - target: {fileID: -8679921383154817045, guid: f059eeb67f5da1d4dba9c0f7eb6e10da, type: 3}
      propertyPath: m_LocalScale.z
      value: 2000
      objectReference: {fileID: 0}
    - target: {fileID: -8679921383154817045, guid: f059eeb67f5da1d4dba9c0f7eb6e10da, type: 3}
      propertyPath: m_LocalPosition.x
      value: -2.39
      objectReference: {fileID: 0}
    - target: {fileID: -8679921383154817045, guid: f059eeb67f5da1d4dba9c0f7eb6e10da, type: 3}
      propertyPath: m_LocalPosition.y
      value: 1
      objectReference: {fileID: 0}
    - target: {fileID: -8679921383154817045, guid: f059eeb67f5da1d4dba9c0f7eb6e10da, type: 3}
      propertyPath: m_LocalPosition.z
      value: -2.39
      objectReference: {fileID: 0}
    - target: {fileID: -8679921383154817045, guid: f059eeb67f5da1d4dba9c0f7eb6e10da, type: 3}
      propertyPath: m_LocalRotation.w
      value: 0.7071067
      objectReference: {fileID: 0}
    - target: {fileID: -8679921383154817045, guid: f059eeb67f5da1d4dba9c0f7eb6e10da, type: 3}
      propertyPath: m_LocalRotation.x
      value: -0.7071068
      objectReference: {fileID: 0}
    - target: {fileID: -8679921383154817045, guid: f059eeb67f5da1d4dba9c0f7eb6e10da, type: 3}
      propertyPath: m_LocalRotation.y
      value: 0
      objectReference: {fileID: 0}
    - target: {fileID: -8679921383154817045, guid: f059eeb67f5da1d4dba9c0f7eb6e10da, type: 3}
      propertyPath: m_LocalRotation.z
      value: -0
      objectReference: {fileID: 0}
    - target: {fileID: -8679921383154817045, guid: f059eeb67f5da1d4dba9c0f7eb6e10da, type: 3}
      propertyPath: m_LocalEulerAnglesHint.x
      value: 0
      objectReference: {fileID: 0}
    - target: {fileID: -8679921383154817045, guid: f059eeb67f5da1d4dba9c0f7eb6e10da, type: 3}
      propertyPath: m_LocalEulerAnglesHint.y
      value: 0
      objectReference: {fileID: 0}
    - target: {fileID: -8679921383154817045, guid: f059eeb67f5da1d4dba9c0f7eb6e10da, type: 3}
      propertyPath: m_LocalEulerAnglesHint.z
      value: 0
      objectReference: {fileID: 0}
    - target: {fileID: 919132149155446097, guid: f059eeb67f5da1d4dba9c0f7eb6e10da, type: 3}
      propertyPath: m_Name
      value: Berlin
      objectReference: {fileID: 0}
    m_RemovedComponents: []
  m_SourcePrefab: {fileID: 100100000, guid: f059eeb67f5da1d4dba9c0f7eb6e10da, type: 3}
--- !u!1001 &1200983504
PrefabInstance:
  m_ObjectHideFlags: 0
  serializedVersion: 2
  m_Modification:
    m_TransformParent: {fileID: 0}
    m_Modifications:
    - target: {fileID: -8679921383154817045, guid: 6e1dd4f4f77810d449a1f716d9b7dd5c, type: 3}
      propertyPath: m_RootOrder
      value: 5
      objectReference: {fileID: 0}
    - target: {fileID: -8679921383154817045, guid: 6e1dd4f4f77810d449a1f716d9b7dd5c, type: 3}
      propertyPath: m_LocalScale.x
      value: 2000
      objectReference: {fileID: 0}
    - target: {fileID: -8679921383154817045, guid: 6e1dd4f4f77810d449a1f716d9b7dd5c, type: 3}
      propertyPath: m_LocalScale.y
      value: 2000
      objectReference: {fileID: 0}
    - target: {fileID: -8679921383154817045, guid: 6e1dd4f4f77810d449a1f716d9b7dd5c, type: 3}
      propertyPath: m_LocalScale.z
      value: 2000
      objectReference: {fileID: 0}
    - target: {fileID: -8679921383154817045, guid: 6e1dd4f4f77810d449a1f716d9b7dd5c, type: 3}
      propertyPath: m_LocalPosition.x
      value: 1.01
      objectReference: {fileID: 0}
    - target: {fileID: -8679921383154817045, guid: 6e1dd4f4f77810d449a1f716d9b7dd5c, type: 3}
      propertyPath: m_LocalPosition.y
      value: 1
      objectReference: {fileID: 0}
    - target: {fileID: -8679921383154817045, guid: 6e1dd4f4f77810d449a1f716d9b7dd5c, type: 3}
      propertyPath: m_LocalPosition.z
      value: -5.01
      objectReference: {fileID: 0}
    - target: {fileID: -8679921383154817045, guid: 6e1dd4f4f77810d449a1f716d9b7dd5c, type: 3}
      propertyPath: m_LocalRotation.w
      value: 0.7071067
      objectReference: {fileID: 0}
    - target: {fileID: -8679921383154817045, guid: 6e1dd4f4f77810d449a1f716d9b7dd5c, type: 3}
      propertyPath: m_LocalRotation.x
      value: -0.7071068
      objectReference: {fileID: 0}
    - target: {fileID: -8679921383154817045, guid: 6e1dd4f4f77810d449a1f716d9b7dd5c, type: 3}
      propertyPath: m_LocalRotation.y
      value: 0
      objectReference: {fileID: 0}
    - target: {fileID: -8679921383154817045, guid: 6e1dd4f4f77810d449a1f716d9b7dd5c, type: 3}
      propertyPath: m_LocalRotation.z
      value: -0
      objectReference: {fileID: 0}
    - target: {fileID: -8679921383154817045, guid: 6e1dd4f4f77810d449a1f716d9b7dd5c, type: 3}
      propertyPath: m_LocalEulerAnglesHint.x
      value: 0
      objectReference: {fileID: 0}
    - target: {fileID: -8679921383154817045, guid: 6e1dd4f4f77810d449a1f716d9b7dd5c, type: 3}
      propertyPath: m_LocalEulerAnglesHint.y
      value: 0
      objectReference: {fileID: 0}
    - target: {fileID: -8679921383154817045, guid: 6e1dd4f4f77810d449a1f716d9b7dd5c, type: 3}
      propertyPath: m_LocalEulerAnglesHint.z
      value: 0
      objectReference: {fileID: 0}
    - target: {fileID: 919132149155446097, guid: 6e1dd4f4f77810d449a1f716d9b7dd5c, type: 3}
      propertyPath: m_Name
      value: SchleswigHolstein
      objectReference: {fileID: 0}
    m_RemovedComponents: []
  m_SourcePrefab: {fileID: 100100000, guid: 6e1dd4f4f77810d449a1f716d9b7dd5c, type: 3}
--- !u!1001 &1223851419
PrefabInstance:
  m_ObjectHideFlags: 0
  serializedVersion: 2
  m_Modification:
    m_TransformParent: {fileID: 0}
    m_Modifications:
    - target: {fileID: -8679921383154817045, guid: 5119faa02adb56b4694c74d0a336542a, type: 3}
      propertyPath: m_RootOrder
      value: 3
      objectReference: {fileID: 0}
    - target: {fileID: -8679921383154817045, guid: 5119faa02adb56b4694c74d0a336542a, type: 3}
      propertyPath: m_LocalScale.x
      value: 2000
      objectReference: {fileID: 0}
    - target: {fileID: -8679921383154817045, guid: 5119faa02adb56b4694c74d0a336542a, type: 3}
      propertyPath: m_LocalScale.y
      value: 2000
      objectReference: {fileID: 0}
    - target: {fileID: -8679921383154817045, guid: 5119faa02adb56b4694c74d0a336542a, type: 3}
      propertyPath: m_LocalScale.z
      value: 2000
      objectReference: {fileID: 0}
    - target: {fileID: -8679921383154817045, guid: 5119faa02adb56b4694c74d0a336542a, type: 3}
      propertyPath: m_LocalPosition.x
      value: 0.57
      objectReference: {fileID: 0}
    - target: {fileID: -8679921383154817045, guid: 5119faa02adb56b4694c74d0a336542a, type: 3}
      propertyPath: m_LocalPosition.y
      value: 1
      objectReference: {fileID: 0}
    - target: {fileID: -8679921383154817045, guid: 5119faa02adb56b4694c74d0a336542a, type: 3}
      propertyPath: m_LocalPosition.z
      value: -3.82
      objectReference: {fileID: 0}
    - target: {fileID: -8679921383154817045, guid: 5119faa02adb56b4694c74d0a336542a, type: 3}
      propertyPath: m_LocalRotation.w
      value: 0.7071067
      objectReference: {fileID: 0}
    - target: {fileID: -8679921383154817045, guid: 5119faa02adb56b4694c74d0a336542a, type: 3}
      propertyPath: m_LocalRotation.x
      value: -0.7071068
      objectReference: {fileID: 0}
    - target: {fileID: -8679921383154817045, guid: 5119faa02adb56b4694c74d0a336542a, type: 3}
      propertyPath: m_LocalRotation.y
      value: 0
      objectReference: {fileID: 0}
    - target: {fileID: -8679921383154817045, guid: 5119faa02adb56b4694c74d0a336542a, type: 3}
      propertyPath: m_LocalRotation.z
      value: -0
      objectReference: {fileID: 0}
    - target: {fileID: -8679921383154817045, guid: 5119faa02adb56b4694c74d0a336542a, type: 3}
      propertyPath: m_LocalEulerAnglesHint.x
      value: 0
      objectReference: {fileID: 0}
    - target: {fileID: -8679921383154817045, guid: 5119faa02adb56b4694c74d0a336542a, type: 3}
      propertyPath: m_LocalEulerAnglesHint.y
      value: 0
      objectReference: {fileID: 0}
    - target: {fileID: -8679921383154817045, guid: 5119faa02adb56b4694c74d0a336542a, type: 3}
      propertyPath: m_LocalEulerAnglesHint.z
      value: 0
      objectReference: {fileID: 0}
    - target: {fileID: 919132149155446097, guid: 5119faa02adb56b4694c74d0a336542a, type: 3}
      propertyPath: m_Name
      value: Hamburg
      objectReference: {fileID: 0}
    m_RemovedComponents: []
  m_SourcePrefab: {fileID: 100100000, guid: 5119faa02adb56b4694c74d0a336542a, type: 3}
--- !u!1 &1558993488
GameObject:
  m_ObjectHideFlags: 0
  m_CorrespondingSourceObject: {fileID: 0}
  m_PrefabInstance: {fileID: 0}
  m_PrefabAsset: {fileID: 0}
  serializedVersion: 6
  m_Component:
  - component: {fileID: 1558993491}
  - component: {fileID: 1558993490}
  - component: {fileID: 1558993489}
  m_Layer: 0
  m_Name: Main Camera
  m_TagString: MainCamera
  m_Icon: {fileID: 0}
  m_NavMeshLayer: 0
  m_StaticEditorFlags: 0
  m_IsActive: 1
--- !u!81 &1558993489
AudioListener:
  m_ObjectHideFlags: 0
  m_CorrespondingSourceObject: {fileID: 0}
  m_PrefabInstance: {fileID: 0}
  m_PrefabAsset: {fileID: 0}
  m_GameObject: {fileID: 1558993488}
  m_Enabled: 1
--- !u!20 &1558993490
Camera:
  m_ObjectHideFlags: 0
  m_CorrespondingSourceObject: {fileID: 0}
  m_PrefabInstance: {fileID: 0}
  m_PrefabAsset: {fileID: 0}
  m_GameObject: {fileID: 1558993488}
  m_Enabled: 1
  serializedVersion: 2
  m_ClearFlags: 1
  m_BackGroundColor: {r: 0.19215687, g: 0.3019608, b: 0.4745098, a: 0}
  m_projectionMatrixMode: 1
  m_GateFitMode: 2
  m_FOVAxisMode: 0
  m_SensorSize: {x: 36, y: 24}
  m_LensShift: {x: 0, y: 0}
  m_FocalLength: 50
  m_NormalizedViewPortRect:
    serializedVersion: 2
    x: 0
    y: 0
    width: 1
    height: 1
  near clip plane: 0.3
  far clip plane: 1000
  field of view: 60
  orthographic: 0
  orthographic size: 5
  m_Depth: -1
  m_CullingMask:
    serializedVersion: 2
    m_Bits: 4294967295
  m_RenderingPath: -1
  m_TargetTexture: {fileID: 0}
  m_TargetDisplay: 0
  m_TargetEye: 3
  m_HDR: 1
  m_AllowMSAA: 1
  m_AllowDynamicResolution: 0
  m_ForceIntoRT: 0
  m_OcclusionCulling: 1
  m_StereoConvergence: 10
  m_StereoSeparation: 0.022
--- !u!4 &1558993491
Transform:
  m_ObjectHideFlags: 0
  m_CorrespondingSourceObject: {fileID: 0}
  m_PrefabInstance: {fileID: 0}
  m_PrefabAsset: {fileID: 0}
  m_GameObject: {fileID: 1558993488}
  m_LocalRotation: {x: 0, y: 0, z: 0, w: 1}
  m_LocalPosition: {x: 0, y: 1, z: -10}
  m_LocalScale: {x: 1, y: 1, z: 1}
  m_Children: []
  m_Father: {fileID: 0}
  m_RootOrder: 0
  m_LocalEulerAnglesHint: {x: 0, y: 0, z: 0}
--- !u!1001 &1599402514
PrefabInstance:
  m_ObjectHideFlags: 0
  serializedVersion: 2
  m_Modification:
    m_TransformParent: {fileID: 0}
    m_Modifications:
    - target: {fileID: -8679921383154817045, guid: b4817cec6e33aa94f86d5efc1e12e2dd, type: 3}
      propertyPath: m_RootOrder
      value: 11
      objectReference: {fileID: 0}
    - target: {fileID: -8679921383154817045, guid: b4817cec6e33aa94f86d5efc1e12e2dd, type: 3}
      propertyPath: m_LocalScale.x
      value: 2000
      objectReference: {fileID: 0}
    - target: {fileID: -8679921383154817045, guid: b4817cec6e33aa94f86d5efc1e12e2dd, type: 3}
      propertyPath: m_LocalScale.y
      value: 2000
      objectReference: {fileID: 0}
    - target: {fileID: -8679921383154817045, guid: b4817cec6e33aa94f86d5efc1e12e2dd, type: 3}
      propertyPath: m_LocalScale.z
      value: 2000
      objectReference: {fileID: 0}
    - target: {fileID: -8679921383154817045, guid: b4817cec6e33aa94f86d5efc1e12e2dd, type: 3}
      propertyPath: m_LocalPosition.x
      value: -0.407
      objectReference: {fileID: 0}
    - target: {fileID: -8679921383154817045, guid: b4817cec6e33aa94f86d5efc1e12e2dd, type: 3}
      propertyPath: m_LocalPosition.y
      value: 1
      objectReference: {fileID: 0}
    - target: {fileID: -8679921383154817045, guid: b4817cec6e33aa94f86d5efc1e12e2dd, type: 3}
      propertyPath: m_LocalPosition.z
      value: 0.056
      objectReference: {fileID: 0}
    - target: {fileID: -8679921383154817045, guid: b4817cec6e33aa94f86d5efc1e12e2dd, type: 3}
      propertyPath: m_LocalRotation.w
      value: 0.7071067
      objectReference: {fileID: 0}
    - target: {fileID: -8679921383154817045, guid: b4817cec6e33aa94f86d5efc1e12e2dd, type: 3}
      propertyPath: m_LocalRotation.x
      value: -0.7071068
      objectReference: {fileID: 0}
    - target: {fileID: -8679921383154817045, guid: b4817cec6e33aa94f86d5efc1e12e2dd, type: 3}
      propertyPath: m_LocalRotation.y
      value: 0
      objectReference: {fileID: 0}
    - target: {fileID: -8679921383154817045, guid: b4817cec6e33aa94f86d5efc1e12e2dd, type: 3}
      propertyPath: m_LocalRotation.z
      value: -0
      objectReference: {fileID: 0}
    - target: {fileID: -8679921383154817045, guid: b4817cec6e33aa94f86d5efc1e12e2dd, type: 3}
      propertyPath: m_LocalEulerAnglesHint.x
      value: 0
      objectReference: {fileID: 0}
    - target: {fileID: -8679921383154817045, guid: b4817cec6e33aa94f86d5efc1e12e2dd, type: 3}
      propertyPath: m_LocalEulerAnglesHint.y
      value: 0
      objectReference: {fileID: 0}
    - target: {fileID: -8679921383154817045, guid: b4817cec6e33aa94f86d5efc1e12e2dd, type: 3}
      propertyPath: m_LocalEulerAnglesHint.z
      value: 0
      objectReference: {fileID: 0}
    - target: {fileID: 919132149155446097, guid: b4817cec6e33aa94f86d5efc1e12e2dd, type: 3}
      propertyPath: m_Name
      value: Thueringen
      objectReference: {fileID: 0}
    m_RemovedComponents: []
  m_SourcePrefab: {fileID: 100100000, guid: b4817cec6e33aa94f86d5efc1e12e2dd, type: 3}
--- !u!1001 &1736425065
PrefabInstance:
  m_ObjectHideFlags: 0
  serializedVersion: 2
  m_Modification:
    m_TransformParent: {fileID: 0}
    m_Modifications:
    - target: {fileID: -8679921383154817045, guid: 853b11197c037894da868e3bb34d79c8, type: 3}
      propertyPath: m_RootOrder
      value: 15
      objectReference: {fileID: 0}
    - target: {fileID: -8679921383154817045, guid: 853b11197c037894da868e3bb34d79c8, type: 3}
      propertyPath: m_LocalScale.x
      value: 2000
      objectReference: {fileID: 0}
    - target: {fileID: -8679921383154817045, guid: 853b11197c037894da868e3bb34d79c8, type: 3}
      propertyPath: m_LocalScale.y
      value: 2000
      objectReference: {fileID: 0}
    - target: {fileID: -8679921383154817045, guid: 853b11197c037894da868e3bb34d79c8, type: 3}
      propertyPath: m_LocalScale.z
      value: 2000
      objectReference: {fileID: 0}
    - target: {fileID: -8679921383154817045, guid: 853b11197c037894da868e3bb34d79c8, type: 3}
      propertyPath: m_LocalPosition.x
      value: -0.36
      objectReference: {fileID: 0}
    - target: {fileID: -8679921383154817045, guid: 853b11197c037894da868e3bb34d79c8, type: 3}
      propertyPath: m_LocalPosition.y
      value: 1
      objectReference: {fileID: 0}
    - target: {fileID: -8679921383154817045, guid: 853b11197c037894da868e3bb34d79c8, type: 3}
      propertyPath: m_LocalPosition.z
      value: 2.83
      objectReference: {fileID: 0}
    - target: {fileID: -8679921383154817045, guid: 853b11197c037894da868e3bb34d79c8, type: 3}
      propertyPath: m_LocalRotation.w
      value: 0.7071067
      objectReference: {fileID: 0}
    - target: {fileID: -8679921383154817045, guid: 853b11197c037894da868e3bb34d79c8, type: 3}
      propertyPath: m_LocalRotation.x
      value: -0.7071068
      objectReference: {fileID: 0}
    - target: {fileID: -8679921383154817045, guid: 853b11197c037894da868e3bb34d79c8, type: 3}
      propertyPath: m_LocalRotation.y
      value: 0
      objectReference: {fileID: 0}
    - target: {fileID: -8679921383154817045, guid: 853b11197c037894da868e3bb34d79c8, type: 3}
      propertyPath: m_LocalRotation.z
      value: -0
      objectReference: {fileID: 0}
    - target: {fileID: -8679921383154817045, guid: 853b11197c037894da868e3bb34d79c8, type: 3}
      propertyPath: m_LocalEulerAnglesHint.x
      value: 0
      objectReference: {fileID: 0}
    - target: {fileID: -8679921383154817045, guid: 853b11197c037894da868e3bb34d79c8, type: 3}
      propertyPath: m_LocalEulerAnglesHint.y
      value: 0
      objectReference: {fileID: 0}
    - target: {fileID: -8679921383154817045, guid: 853b11197c037894da868e3bb34d79c8, type: 3}
      propertyPath: m_LocalEulerAnglesHint.z
      value: 0
      objectReference: {fileID: 0}
    - target: {fileID: 919132149155446097, guid: 853b11197c037894da868e3bb34d79c8, type: 3}
      propertyPath: m_Name
      value: bayern
      objectReference: {fileID: 0}
    m_RemovedComponents: []
  m_SourcePrefab: {fileID: 100100000, guid: 853b11197c037894da868e3bb34d79c8, type: 3}
--- !u!1001 &1794248683
PrefabInstance:
  m_ObjectHideFlags: 0
  serializedVersion: 2
  m_Modification:
    m_TransformParent: {fileID: 0}
    m_Modifications:
    - target: {fileID: -8679921383154817045, guid: c7b59cfcbf943794f9bcd80204b35d5b, type: 3}
      propertyPath: m_RootOrder
      value: 8
      objectReference: {fileID: 0}
    - target: {fileID: -8679921383154817045, guid: c7b59cfcbf943794f9bcd80204b35d5b, type: 3}
      propertyPath: m_LocalScale.x
      value: 2000
      objectReference: {fileID: 0}
    - target: {fileID: -8679921383154817045, guid: c7b59cfcbf943794f9bcd80204b35d5b, type: 3}
      propertyPath: m_LocalScale.y
      value: 2000
      objectReference: {fileID: 0}
    - target: {fileID: -8679921383154817045, guid: c7b59cfcbf943794f9bcd80204b35d5b, type: 3}
      propertyPath: m_LocalScale.z
      value: 2000
      objectReference: {fileID: 0}
    - target: {fileID: -8679921383154817045, guid: c7b59cfcbf943794f9bcd80204b35d5b, type: 3}
      propertyPath: m_LocalPosition.x
      value: 2.85
      objectReference: {fileID: 0}
    - target: {fileID: -8679921383154817045, guid: c7b59cfcbf943794f9bcd80204b35d5b, type: 3}
      propertyPath: m_LocalPosition.y
      value: 1
      objectReference: {fileID: 0}
    - target: {fileID: -8679921383154817045, guid: c7b59cfcbf943794f9bcd80204b35d5b, type: 3}
      propertyPath: m_LocalPosition.z
      value: -0.91
      objectReference: {fileID: 0}
    - target: {fileID: -8679921383154817045, guid: c7b59cfcbf943794f9bcd80204b35d5b, type: 3}
      propertyPath: m_LocalRotation.w
      value: 0.7071067
      objectReference: {fileID: 0}
    - target: {fileID: -8679921383154817045, guid: c7b59cfcbf943794f9bcd80204b35d5b, type: 3}
      propertyPath: m_LocalRotation.x
      value: -0.7071068
      objectReference: {fileID: 0}
    - target: {fileID: -8679921383154817045, guid: c7b59cfcbf943794f9bcd80204b35d5b, type: 3}
      propertyPath: m_LocalRotation.y
      value: 0
      objectReference: {fileID: 0}
    - target: {fileID: -8679921383154817045, guid: c7b59cfcbf943794f9bcd80204b35d5b, type: 3}
      propertyPath: m_LocalRotation.z
      value: -0
      objectReference: {fileID: 0}
    - target: {fileID: -8679921383154817045, guid: c7b59cfcbf943794f9bcd80204b35d5b, type: 3}
      propertyPath: m_LocalEulerAnglesHint.x
      value: 0
      objectReference: {fileID: 0}
    - target: {fileID: -8679921383154817045, guid: c7b59cfcbf943794f9bcd80204b35d5b, type: 3}
      propertyPath: m_LocalEulerAnglesHint.y
      value: 0
      objectReference: {fileID: 0}
    - target: {fileID: -8679921383154817045, guid: c7b59cfcbf943794f9bcd80204b35d5b, type: 3}
      propertyPath: m_LocalEulerAnglesHint.z
      value: 0
      objectReference: {fileID: 0}
    - target: {fileID: 919132149155446097, guid: c7b59cfcbf943794f9bcd80204b35d5b, type: 3}
      propertyPath: m_Name
      value: NRW
      objectReference: {fileID: 0}
    m_RemovedComponents: []
  m_SourcePrefab: {fileID: 100100000, guid: c7b59cfcbf943794f9bcd80204b35d5b, type: 3}
--- !u!1001 &1859790657
PrefabInstance:
  m_ObjectHideFlags: 0
  serializedVersion: 2
  m_Modification:
    m_TransformParent: {fileID: 0}
    m_Modifications:
    - target: {fileID: -8679921383154817045, guid: cb4bed36f6d28204cbff5fcc80493441, type: 3}
      propertyPath: m_RootOrder
      value: 16
      objectReference: {fileID: 0}
    - target: {fileID: -8679921383154817045, guid: cb4bed36f6d28204cbff5fcc80493441, type: 3}
      propertyPath: m_LocalScale.x
      value: 2000
      objectReference: {fileID: 0}
    - target: {fileID: -8679921383154817045, guid: cb4bed36f6d28204cbff5fcc80493441, type: 3}
      propertyPath: m_LocalScale.y
      value: 2000
      objectReference: {fileID: 0}
    - target: {fileID: -8679921383154817045, guid: cb4bed36f6d28204cbff5fcc80493441, type: 3}
      propertyPath: m_LocalScale.z
      value: 2000
      objectReference: {fileID: 0}
    - target: {fileID: -8679921383154817045, guid: cb4bed36f6d28204cbff5fcc80493441, type: 3}
      propertyPath: m_LocalPosition.x
      value: 1.565
      objectReference: {fileID: 0}
    - target: {fileID: -8679921383154817045, guid: cb4bed36f6d28204cbff5fcc80493441, type: 3}
      propertyPath: m_LocalPosition.y
      value: 1
      objectReference: {fileID: 0}
    - target: {fileID: -8679921383154817045, guid: cb4bed36f6d28204cbff5fcc80493441, type: 3}
      propertyPath: m_LocalPosition.z
      value: 3.21
      objectReference: {fileID: 0}
    - target: {fileID: -8679921383154817045, guid: cb4bed36f6d28204cbff5fcc80493441, type: 3}
      propertyPath: m_LocalRotation.w
      value: 0.7071067
      objectReference: {fileID: 0}
    - target: {fileID: -8679921383154817045, guid: cb4bed36f6d28204cbff5fcc80493441, type: 3}
      propertyPath: m_LocalRotation.x
      value: -0.7071068
      objectReference: {fileID: 0}
    - target: {fileID: -8679921383154817045, guid: cb4bed36f6d28204cbff5fcc80493441, type: 3}
      propertyPath: m_LocalRotation.y
      value: 0
      objectReference: {fileID: 0}
    - target: {fileID: -8679921383154817045, guid: cb4bed36f6d28204cbff5fcc80493441, type: 3}
      propertyPath: m_LocalRotation.z
      value: -0
      objectReference: {fileID: 0}
    - target: {fileID: -8679921383154817045, guid: cb4bed36f6d28204cbff5fcc80493441, type: 3}
      propertyPath: m_LocalEulerAnglesHint.x
      value: 0
      objectReference: {fileID: 0}
    - target: {fileID: -8679921383154817045, guid: cb4bed36f6d28204cbff5fcc80493441, type: 3}
      propertyPath: m_LocalEulerAnglesHint.y
      value: 0
      objectReference: {fileID: 0}
    - target: {fileID: -8679921383154817045, guid: cb4bed36f6d28204cbff5fcc80493441, type: 3}
      propertyPath: m_LocalEulerAnglesHint.z
      value: 0
      objectReference: {fileID: 0}
    - target: {fileID: 919132149155446097, guid: cb4bed36f6d28204cbff5fcc80493441, type: 3}
      propertyPath: m_Name
      value: BaWu
      objectReference: {fileID: 0}
    m_RemovedComponents: []
  m_SourcePrefab: {fileID: 100100000, guid: cb4bed36f6d28204cbff5fcc80493441, type: 3}
--- !u!1001 &1989312219
PrefabInstance:
  m_ObjectHideFlags: 0
  serializedVersion: 2
  m_Modification:
    m_TransformParent: {fileID: 0}
    m_Modifications:
    - target: {fileID: -8679921383154817045, guid: bab79fa3ebac23249a5284d852d20e92, type: 3}
      propertyPath: m_RootOrder
      value: 12
      objectReference: {fileID: 0}
    - target: {fileID: -8679921383154817045, guid: bab79fa3ebac23249a5284d852d20e92, type: 3}
      propertyPath: m_LocalScale.x
      value: 2000
      objectReference: {fileID: 0}
    - target: {fileID: -8679921383154817045, guid: bab79fa3ebac23249a5284d852d20e92, type: 3}
      propertyPath: m_LocalScale.y
      value: 2000
      objectReference: {fileID: 0}
    - target: {fileID: -8679921383154817045, guid: bab79fa3ebac23249a5284d852d20e92, type: 3}
      propertyPath: m_LocalScale.z
      value: 2000
      objectReference: {fileID: 0}
    - target: {fileID: -8679921383154817045, guid: bab79fa3ebac23249a5284d852d20e92, type: 3}
      propertyPath: m_LocalPosition.x
      value: 1.47
      objectReference: {fileID: 0}
    - target: {fileID: -8679921383154817045, guid: bab79fa3ebac23249a5284d852d20e92, type: 3}
      propertyPath: m_LocalPosition.y
      value: 1
      objectReference: {fileID: 0}
    - target: {fileID: -8679921383154817045, guid: bab79fa3ebac23249a5284d852d20e92, type: 3}
      propertyPath: m_LocalPosition.z
      value: 0.417
      objectReference: {fileID: 0}
    - target: {fileID: -8679921383154817045, guid: bab79fa3ebac23249a5284d852d20e92, type: 3}
      propertyPath: m_LocalRotation.w
      value: 0.7071067
      objectReference: {fileID: 0}
    - target: {fileID: -8679921383154817045, guid: bab79fa3ebac23249a5284d852d20e92, type: 3}
      propertyPath: m_LocalRotation.x
      value: -0.7071068
      objectReference: {fileID: 0}
    - target: {fileID: -8679921383154817045, guid: bab79fa3ebac23249a5284d852d20e92, type: 3}
      propertyPath: m_LocalRotation.y
      value: 0
      objectReference: {fileID: 0}
    - target: {fileID: -8679921383154817045, guid: bab79fa3ebac23249a5284d852d20e92, type: 3}
      propertyPath: m_LocalRotation.z
      value: -0
      objectReference: {fileID: 0}
    - target: {fileID: -8679921383154817045, guid: bab79fa3ebac23249a5284d852d20e92, type: 3}
      propertyPath: m_LocalEulerAnglesHint.x
      value: 0
      objectReference: {fileID: 0}
    - target: {fileID: -8679921383154817045, guid: bab79fa3ebac23249a5284d852d20e92, type: 3}
      propertyPath: m_LocalEulerAnglesHint.y
      value: 0
      objectReference: {fileID: 0}
    - target: {fileID: -8679921383154817045, guid: bab79fa3ebac23249a5284d852d20e92, type: 3}
      propertyPath: m_LocalEulerAnglesHint.z
      value: 0
      objectReference: {fileID: 0}
    - target: {fileID: 919132149155446097, guid: bab79fa3ebac23249a5284d852d20e92, type: 3}
      propertyPath: m_Name
      value: Hessen
      objectReference: {fileID: 0}
    m_RemovedComponents: []
  m_SourcePrefab: {fileID: 100100000, guid: bab79fa3ebac23249a5284d852d20e92, type: 3}
--- !u!1001 &2006580217
PrefabInstance:
  m_ObjectHideFlags: 0
  serializedVersion: 2
  m_Modification:
    m_TransformParent: {fileID: 0}
    m_Modifications:
    - target: {fileID: -8679921383154817045, guid: fa7873fb1ec00744ba0cd96de147f619, type: 3}
      propertyPath: m_RootOrder
      value: 7
      objectReference: {fileID: 0}
    - target: {fileID: -8679921383154817045, guid: fa7873fb1ec00744ba0cd96de147f619, type: 3}
      propertyPath: m_LocalScale.x
      value: 2000
      objectReference: {fileID: 0}
    - target: {fileID: -8679921383154817045, guid: fa7873fb1ec00744ba0cd96de147f619, type: 3}
      propertyPath: m_LocalScale.y
      value: 2000
      objectReference: {fileID: 0}
    - target: {fileID: -8679921383154817045, guid: fa7873fb1ec00744ba0cd96de147f619, type: 3}
      propertyPath: m_LocalScale.z
      value: 2000
      objectReference: {fileID: 0}
    - target: {fileID: -8679921383154817045, guid: fa7873fb1ec00744ba0cd96de147f619, type: 3}
      propertyPath: m_LocalPosition.x
      value: 1.51
      objectReference: {fileID: 0}
    - target: {fileID: -8679921383154817045, guid: fa7873fb1ec00744ba0cd96de147f619, type: 3}
      propertyPath: m_LocalPosition.y
      value: 1
      objectReference: {fileID: 0}
    - target: {fileID: -8679921383154817045, guid: fa7873fb1ec00744ba0cd96de147f619, type: 3}
      propertyPath: m_LocalPosition.z
      value: -2.75
      objectReference: {fileID: 0}
    - target: {fileID: -8679921383154817045, guid: fa7873fb1ec00744ba0cd96de147f619, type: 3}
      propertyPath: m_LocalRotation.w
      value: 0.7071067
      objectReference: {fileID: 0}
    - target: {fileID: -8679921383154817045, guid: fa7873fb1ec00744ba0cd96de147f619, type: 3}
      propertyPath: m_LocalRotation.x
      value: -0.7071068
      objectReference: {fileID: 0}
    - target: {fileID: -8679921383154817045, guid: fa7873fb1ec00744ba0cd96de147f619, type: 3}
      propertyPath: m_LocalRotation.y
      value: 0
      objectReference: {fileID: 0}
    - target: {fileID: -8679921383154817045, guid: fa7873fb1ec00744ba0cd96de147f619, type: 3}
      propertyPath: m_LocalRotation.z
      value: -0
      objectReference: {fileID: 0}
    - target: {fileID: -8679921383154817045, guid: fa7873fb1ec00744ba0cd96de147f619, type: 3}
      propertyPath: m_LocalEulerAnglesHint.x
      value: 0
      objectReference: {fileID: 0}
    - target: {fileID: -8679921383154817045, guid: fa7873fb1ec00744ba0cd96de147f619, type: 3}
      propertyPath: m_LocalEulerAnglesHint.y
      value: 0
      objectReference: {fileID: 0}
    - target: {fileID: -8679921383154817045, guid: fa7873fb1ec00744ba0cd96de147f619, type: 3}
      propertyPath: m_LocalEulerAnglesHint.z
      value: 0
      objectReference: {fileID: 0}
    - target: {fileID: 919132149155446097, guid: fa7873fb1ec00744ba0cd96de147f619, type: 3}
      propertyPath: m_Name
      value: Niedersachsen
      objectReference: {fileID: 0}
    m_RemovedComponents: []
  m_SourcePrefab: {fileID: 100100000, guid: fa7873fb1ec00744ba0cd96de147f619, type: 3}
--- !u!1001 &2129954050
PrefabInstance:
  m_ObjectHideFlags: 0
  serializedVersion: 2
  m_Modification:
    m_TransformParent: {fileID: 0}
    m_Modifications:
    - target: {fileID: -8679921383154817045, guid: bf3c75b17e62df74bb1a7288f9fa8087, type: 3}
      propertyPath: m_RootOrder
      value: 10
      objectReference: {fileID: 0}
    - target: {fileID: -8679921383154817045, guid: bf3c75b17e62df74bb1a7288f9fa8087, type: 3}
      propertyPath: m_LocalScale.x
      value: 2000
      objectReference: {fileID: 0}
    - target: {fileID: -8679921383154817045, guid: bf3c75b17e62df74bb1a7288f9fa8087, type: 3}
      propertyPath: m_LocalScale.y
      value: 2000
      objectReference: {fileID: 0}
    - target: {fileID: -8679921383154817045, guid: bf3c75b17e62df74bb1a7288f9fa8087, type: 3}
      propertyPath: m_LocalScale.z
      value: 2000
      objectReference: {fileID: 0}
    - target: {fileID: -8679921383154817045, guid: bf3c75b17e62df74bb1a7288f9fa8087, type: 3}
      propertyPath: m_LocalPosition.x
      value: -2.23
      objectReference: {fileID: 0}
    - target: {fileID: -8679921383154817045, guid: bf3c75b17e62df74bb1a7288f9fa8087, type: 3}
      propertyPath: m_LocalPosition.y
      value: 1
      objectReference: {fileID: 0}
    - target: {fileID: -8679921383154817045, guid: bf3c75b17e62df74bb1a7288f9fa8087, type: 3}
      propertyPath: m_LocalPosition.z
      value: -0.19
      objectReference: {fileID: 0}
    - target: {fileID: -8679921383154817045, guid: bf3c75b17e62df74bb1a7288f9fa8087, type: 3}
      propertyPath: m_LocalRotation.w
      value: 0.7071067
      objectReference: {fileID: 0}
    - target: {fileID: -8679921383154817045, guid: bf3c75b17e62df74bb1a7288f9fa8087, type: 3}
      propertyPath: m_LocalRotation.x
      value: -0.7071068
      objectReference: {fileID: 0}
    - target: {fileID: -8679921383154817045, guid: bf3c75b17e62df74bb1a7288f9fa8087, type: 3}
      propertyPath: m_LocalRotation.y
      value: 0
      objectReference: {fileID: 0}
    - target: {fileID: -8679921383154817045, guid: bf3c75b17e62df74bb1a7288f9fa8087, type: 3}
      propertyPath: m_LocalRotation.z
      value: -0
      objectReference: {fileID: 0}
    - target: {fileID: -8679921383154817045, guid: bf3c75b17e62df74bb1a7288f9fa8087, type: 3}
      propertyPath: m_LocalEulerAnglesHint.x
      value: 0
      objectReference: {fileID: 0}
    - target: {fileID: -8679921383154817045, guid: bf3c75b17e62df74bb1a7288f9fa8087, type: 3}
      propertyPath: m_LocalEulerAnglesHint.y
      value: 0
      objectReference: {fileID: 0}
    - target: {fileID: -8679921383154817045, guid: bf3c75b17e62df74bb1a7288f9fa8087, type: 3}
      propertyPath: m_LocalEulerAnglesHint.z
      value: 0
      objectReference: {fileID: 0}
    - target: {fileID: 919132149155446097, guid: bf3c75b17e62df74bb1a7288f9fa8087, type: 3}
      propertyPath: m_Name
      value: Sachsen
      objectReference: {fileID: 0}
    m_RemovedComponents: []
  m_SourcePrefab: {fileID: 100100000, guid: bf3c75b17e62df74bb1a7288f9fa8087, type: 3}
